C:\Users\User\Documents\FRIENDS\OXOOP\src\main\java\com\wip\oxoop\Board.java
C:\Users\User\Documents\FRIENDS\OXOOP\src\main\java\com\wip\oxoop\OXOOP.java
C:\Users\User\Documents\FRIENDS\OXOOP\src\main\java\com\wip\oxoop\Game.java
C:\Users\User\Documents\FRIENDS\OXOOP\src\main\java\com\wip\oxoop\Player.java
